{
    "message": "ok",
    "success": true,
    "data": {
        "data": [
            {
                "dataType": "",
                "date": "",
                "pageIndex": 0,
                "pageSize": 0,
                "percent": 152.16,
                "productId": 8,
                "productName": "",
                "pv": 423,
                "query": "上海钛度智能科技有限公司",
                "spv": 278
            },
            {
                "dataType": "",
                "date": "",
                "pageIndex": 0,
                "pageSize": 0,
                "percent": 141.72,
                "productId": 8,
                "productName": "",
                "pv": 214,
                "query": "领峰贵金属有限公司",
                "spv": 151
            },
            {
                "dataType": "",
                "date": "",
                "pageIndex": 0,
                "pageSize": 0,
                "percent": 214.81,
                "productId": 8,
                "productName": "",
                "pv": 116,
                "query": "天津伊美尔医疗整形美容专科医院有限公司",
                "spv": 54
            },
            {
                "dataType": "",
                "date": "",
                "pageIndex": 0,
                "pageSize": 0,
                "percent": 172.73,
                "productId": 8,
                "productName": "",
                "pv": 95,
                "query": "北京海华医院",
                "spv": 55
            },
            {
                "dataType": "",
                "date": "",
                "pageIndex": 0,
                "pageSize": 0,
                "percent": 125.93,
                "productId": 8,
                "productName": "",
                "pv": 68,
                "query": "上海游族文化传媒有限公司",
                "spv": 54
            },
            {
                "dataType": "",
                "date": "",
                "pageIndex": 0,
                "pageSize": 0,
                "percent": 220,
                "productId": 8,
                "productName": "",
                "pv": 66,
                "query": "武汉都市妇产医院有限公司",
                "spv": 30
            },
            {
                "dataType": "",
                "date": "",
                "pageIndex": 0,
                "pageSize": 0,
                "percent": 177.78,
                "productId": 8,
                "productName": "",
                "pv": 64,
                "query": "上海明珠医院有限公司",
                "spv": 36
            },
            {
                "dataType": "",
                "date": "",
                "pageIndex": 0,
                "pageSize": 0,
                "percent": 155,
                "productId": 8,
                "productName": "",
                "pv": 62,
                "query": "陕西南洋迪克家具制造有限公司",
                "spv": 40
            },
            {
                "dataType": "",
                "date": "",
                "pageIndex": 0,
                "pageSize": 0,
                "percent": 111.76,
                "productId": 8,
                "productName": "",
                "pv": 57,
                "query": "北京蒙娜丽莎摄影有限公司",
                "spv": 51
            },
            {
                "dataType": "",
                "date": "",
                "pageIndex": 0,
                "pageSize": 0,
                "percent": 126.32,
                "productId": 8,
                "productName": "",
                "pv": 48,
                "query": "北京美迪中医皮肤病医院",
                "spv": 38
            },
            {
                "dataType": "",
                "date": "",
                "pageIndex": 0,
                "pageSize": 0,
                "percent": 176.92,
                "productId": 8,
                "productName": "",
                "pv": 46,
                "query": "北京凤凰妇科医院",
                "spv": 26
            },
            {
                "dataType": "",
                "date": "",
                "pageIndex": 0,
                "pageSize": 0,
                "percent": 104.65,
                "productId": 8,
                "productName": "",
                "pv": 45,
                "query": "深圳市邦德文化发展有限公司",
                "spv": 43
            },
            {
                "dataType": "",
                "date": "",
                "pageIndex": 0,
                "pageSize": 0,
                "percent": 120.69,
                "productId": 8,
                "productName": "",
                "pv": 35,
                "query": "上海华肤医院有限公司",
                "spv": 29
            },
            {
                "dataType": "",
                "date": "",
                "pageIndex": 0,
                "pageSize": 0,
                "percent": 183.33,
                "productId": 8,
                "productName": "",
                "pv": 33,
                "query": "深圳大唐国际艺术品投资管理有限公司",
                "spv": 18
            },
            {
                "dataType": "",
                "date": "",
                "pageIndex": 0,
                "pageSize": 0,
                "percent": 150,
                "productId": 8,
                "productName": "",
                "pv": 30,
                "query": "北京今日英才教育科技有限公司",
                "spv": 20
            },
            {
                "dataType": "",
                "date": "",
                "pageIndex": 0,
                "pageSize": 0,
                "percent": 136.36,
                "productId": 8,
                "productName": "",
                "pv": 30,
                "query": "武汉瑞恒医药生物有限公司",
                "spv": 22
            },
            {
                "dataType": "",
                "date": "",
                "pageIndex": 0,
                "pageSize": 0,
                "percent": 100,
                "productId": 8,
                "productName": "",
                "pv": 30,
                "query": "广东英得尔实业发展有限公司",
                "spv": 30
            },
            {
                "dataType": "",
                "date": "",
                "pageIndex": 0,
                "pageSize": 0,
                "percent": 136.36,
                "productId": 8,
                "productName": "",
                "pv": 30,
                "query": "大连洛可可婚纱摄影有限公司",
                "spv": 22
            },
            {
                "dataType": "",
                "date": "",
                "pageIndex": 0,
                "pageSize": 0,
                "percent": 29000,
                "productId": 8,
                "productName": "",
                "pv": 29,
                "query": "九鼎装饰股份有限公司",
                "spv": 0
            },
            {
                "dataType": "",
                "date": "",
                "pageIndex": 0,
                "pageSize": 0,
                "percent": 127.27,
                "productId": 8,
                "productName": "",
                "pv": 28,
                "query": "上海巨良电磁阀制造有限公司",
                "spv": 22
            },
            {
                "dataType": "",
                "date": "",
                "pageIndex": 0,
                "pageSize": 0,
                "percent": 325,
                "productId": 8,
                "productName": "",
                "pv": 26,
                "query": "上海传美化妆品有限公司",
                "spv": 8
            },
            {
                "dataType": "",
                "date": "",
                "pageIndex": 0,
                "pageSize": 0,
                "percent": 236.36,
                "productId": 8,
                "productName": "",
                "pv": 26,
                "query": "昆明丽都医疗美容医院有限公司",
                "spv": 11
            },
            {
                "dataType": "",
                "date": "",
                "pageIndex": 0,
                "pageSize": 0,
                "percent": 121.05,
                "productId": 8,
                "productName": "",
                "pv": 23,
                "query": "Europapa Handels GmbH",
                "spv": 19
            },
            {
                "dataType": "",
                "date": "",
                "pageIndex": 0,
                "pageSize": 0,
                "percent": 121.05,
                "productId": 8,
                "productName": "",
                "pv": 23,
                "query": "杭州阿波罗男子医院有限公司",
                "spv": 19
            },
            {
                "dataType": "",
                "date": "",
                "pageIndex": 0,
                "pageSize": 0,
                "percent": 244.44,
                "productId": 8,
                "productName": "",
                "pv": 22,
                "query": "天津世元金行贵金属经营有限公司",
                "spv": 9
            },
            {
                "dataType": "",
                "date": "",
                "pageIndex": 0,
                "pageSize": 0,
                "percent": 110.53,
                "productId": 8,
                "productName": "",
                "pv": 21,
                "query": "深圳市鑫宝源艺术品投资管理有限公司",
                "spv": 19
            },
            {
                "dataType": "",
                "date": "",
                "pageIndex": 0,
                "pageSize": 0,
                "percent": 161.54,
                "productId": 8,
                "productName": "",
                "pv": 21,
                "query": "上海袋式除尘配件有限公司",
                "spv": 13
            },
            {
                "dataType": "",
                "date": "",
                "pageIndex": 0,
                "pageSize": 0,
                "percent": 153.85,
                "productId": 8,
                "productName": "",
                "pv": 20,
                "query": "厦工楚胜(湖北)专用汽车制造有限公司",
                "spv": 13
            },
            {
                "dataType": "",
                "date": "",
                "pageIndex": 0,
                "pageSize": 0,
                "percent": 222.22,
                "productId": 8,
                "productName": "",
                "pv": 20,
                "query": "上海比迪工业铝型材配件有限公司",
                "spv": 9
            },
            {
                "dataType": "",
                "date": "",
                "pageIndex": 0,
                "pageSize": 0,
                "percent": 200,
                "productId": 8,
                "productName": "",
                "pv": 20,
                "query": "上海昊古投资咨询有限公司",
                "spv": 10
            }
        ],
        "totalCount": 858,
        "pageIndex": 1,
        "totalPage": 28
    }
}