{
  "message": "ok",
  "success": true,
  "data": {
    "table": {
      "heads":[
          "zzw","www"
      ],
      "rows": [
        {
          "id": 3802,
          "subMonitorType": "物料展现监控",
          "monitorLevel": 0,
          "date": "2015-04-16 13:53:35",
          "channel": "PCPS品专",
          "status": 0,
          "url": "",
          "owner": "yangjinfeng02,yangjinfeng02,zhujiawei,null",
          "monitorId": 3802,
          "monitorName": "KA品专PS全量展现监控",
          "productId": 1,
          "productName": "KA品专",
          "query": "美拍iphone",
          "reason": "MVP详情：http://mvp.baidu.com/#/detail/46209628. null",
          "row": [1,2],
          "alarmCount": 20,
          "loss": 2300,
          "healthEffect": "12%",
          "healthEffectInfo": "p0:12%,p1:12%,p2:12%,p3:20%"
        },
        {
          "id": 3803,
          "subMonitorType": "物料展现监控",
          "monitorLevel": 0,
          "date": "2015-04-16 13:53:35",
          "channel": "PCPS品专",
          "status": 1,
          "url": "http://bcscdn.baidu.com/materialtest/10942298/20150416133927000.html",
          "owner": "yangjinfeng02,yangjinfeng02,zhujiawei,null",
          "monitorId": 3803,
          "monitorName": "KA品专PS全量展现监控",
          "productId": 1,
          "productName": "KA品专",
          "query": "美拍iphone",
          "reason": "MVP详情：http://mvp.baidu.com/#/detail/46209629. null",
          "row": [1,2],
          "alarmCount": 20,
          "loss": 0.00,
          "healthEffect": 12,
          "healthEffectInfo": 1323
        },
        {
          "id": 3804,
          "subMonitorType": "物料展现监控",
          "monitorLevel": 0,
          "date": "2015-04-16 13:53:35",
          "channel": "PCPS品专",
          "status": 2,
          "url": "http://bcscdn.baidu.com/materialtest/10942298/20150416133905000.html",
          "owner": "yangjinfeng02,yangjinfeng02,zhujiawei,null",
          "monitorId": 3804,
          "monitorName": "KA品专PS全量展现监控",
          "productId": 1,
          "productName": "KA品专",
          "query": "昂科拉1.4t 都市领先型",
          "reason": "MVP详情：http://mvp.baidu.com/#/detail/46209558. null",
          "row": [1,2],
          "alarmCount": 20,
          "loss": 200,
          "healthEffect": 0.00,
          "healthEffectInfo": 1323
        },
        {
          "id": 3805,
          "subMonitorType": "物料展现监控",
          "monitorLevel": 0,
          "date": "2015-04-16 13:53:35",
          "channel": "PCPS品专",
          "status": 0,
          "url": "http://bcscdn.baidu.com/materialtest/10942298/20150416133905000.html",
          "owner": "yangjinfeng02,yangjinfeng02,zhujiawei,null",
          "monitorId": 3805,
          "monitorName": "KA品专PS全量展现监控",
          "productId": 1,
          "productName": "KA品专",
          "query": "昂科拉1.4t 都市领先型",
          "reason": "MVP详情：http://mvp.baidu.com/#/detail/46209559. null",
          "row": [1,2],
          "alarmCount": 20,
          "healthEffect": 12
        },
        {
          "id": 3802,
          "subMonitorType": "物料展现监控",
          "monitorLevel": 0,
          "date": "2015-04-16 13:53:35",
          "channel": "PCPS品专",
          "status": 0,
          "url": "",
          "owner": "yangjinfeng02,yangjinfeng02,zhujiawei,null",
          "monitorId": 3802,
          "monitorName": "KA品专PS全量展现监控",
          "productId": 1,
          "productName": "KA品专",
          "query": "美拍iphone",
          "reason": "MVP详情：http://mvp.baidu.com/#/detail/46209628. null",
          "row": [1,2],
          "alarmCount": 20,
          "healthEffect": 12
        },
        {
          "id": 3803,
          "subMonitorType": "物料展现监控",
          "monitorLevel": 0,
          "date": "2015-04-16 13:53:35",
          "channel": "PCPS品专",
          "status": 1,
          "url": "http://bcscdn.baidu.com/materialtest/10942298/20150416133927000.html",
          "owner": "yangjinfeng02,yangjinfeng02,zhujiawei,null",
          "monitorId": 3803,
          "monitorName": "KA品专PS全量展现监控",
          "productId": 1,
          "productName": "KA品专",
          "query": "美拍iphone",
          "reason": "MVP详情：http://mvp.baidu.com/#/detail/46209629. null",
          "row": [1,2],
          "alarmCount": 20
        },
        {
          "id": 3804,
          "subMonitorType": "物料展现监控",
          "monitorLevel": 0,
          "date": "2015-04-16 13:53:35",
          "channel": "PCPS品专",
          "status": 2,
          "url": "http://bcscdn.baidu.com/materialtest/10942298/20150416133905000.html",
          "owner": "yangjinfeng02,yangjinfeng02,zhujiawei,null",
          "monitorId": 3804,
          "monitorName": "KA品专PS全量展现监控",
          "productId": 1,
          "productName": "KA品专",
          "query": "昂科拉1.4t 都市领先型",
          "reason": "MVP详情：http://mvp.baidu.com/#/detail/46209558. null",
          "row": [1,2],
          "alarmCount": 20
        },
        {
          "id": 3805,
          "subMonitorType": "物料展现监控",
          "monitorLevel": 0,
          "date": "2015-04-16 13:53:35",
          "channel": "PCPS品专",
          "status": 0,
          "url": "http://bcscdn.baidu.com/materialtest/10942298/20150416133905000.html",
          "owner": "yangjinfeng02,yangjinfeng02,zhujiawei,null",
          "monitorId": 3805,
          "monitorName": "KA品专PS全量展现监控",
          "productId": 1,
          "productName": "KA品专",
          "query": "昂科拉1.4t 都市领先型",
          "reason": "MVP详情：http://mvp.baidu.com/#/detail/46209559. null",
          "row": [1,2],
          "alarmCount": 20
        },
        {
          "id": 3802,
          "subMonitorType": "物料展现监控",
          "monitorLevel": 0,
          "date": "2015-04-16 13:53:35",
          "channel": "PCPS品专",
          "status": 0,
          "url": "",
          "owner": "yangjinfeng02,yangjinfeng02,zhujiawei,null",
          "monitorId": 3802,
          "monitorName": "KA品专PS全量展现监控",
          "productId": 1,
          "productName": "KA品专",
          "query": "美拍iphone",
          "reason": "MVP详情：http://mvp.baidu.com/#/detail/46209628. null",
          "row": [1,2],
          "alarmCount": 20
        },
        {
          "id": 3803,
          "subMonitorType": "物料展现监控",
          "monitorLevel": 0,
          "date": "2015-04-16 13:53:35",
          "channel": "PCPS品专",
          "status": 1,
          "url": "http://bcscdn.baidu.com/materialtest/10942298/20150416133927000.html",
          "owner": "yangjinfeng02,yangjinfeng02,zhujiawei,null",
          "monitorId": 3803,
          "monitorName": "KA品专PS全量展现监控",
          "productId": 1,
          "productName": "KA品专",
          "query": "美拍iphone",
          "reason": "MVP详情：http://mvp.baidu.com/#/detail/46209629. null",
          "row": [1,2],
          "alarmCount": 20
        },
        {
          "id": 3804,
          "subMonitorType": "物料展现监控",
          "monitorLevel": 0,
          "date": "2015-04-16 13:53:35",
          "channel": "PCPS品专",
          "status": 2,
          "url": "http://bcscdn.baidu.com/materialtest/10942298/20150416133905000.html",
          "owner": "yangjinfeng02,yangjinfeng02,zhujiawei,null",
          "monitorId": 3804,
          "monitorName": "KA品专PS全量展现监控",
          "productId": 1,
          "productName": "KA品专",
          "query": "昂科拉1.4t 都市领先型",
          "reason": "MVP详情：http://mvp.baidu.com/#/detail/46209558. null",
          "row": [1,2],
          "alarmCount": 20
        },
        {
          "id": 3805,
          "subMonitorType": "物料展现监控",
          "monitorLevel": 0,
          "date": "2015-04-16 13:53:35",
          "channel": "PCPS品专",
          "status": 0,
          "url": "http://bcscdn.baidu.com/materialtest/10942298/20150416133905000.html",
          "owner": "yangjinfeng02,yangjinfeng02,zhujiawei,null",
          "monitorId": 3805,
          "monitorName": "KA品专PS全量展现监控",
          "productId": 1,
          "productName": "KA品专",
          "query": "昂科拉1.4t 都市领先型",
          "reason": "MVP详情：http://mvp.baidu.com/#/detail/46209559. null",
          "row": [1,2],
          "alarmCount": 20
        }
      ]
    },
    "totalCount": 70,
    "pageIndex": 2,
    "totalPage": 3,
    "uncompletedCount": 236,
    "displayUncompletedCount": 36,
    "qualityUncompletedCount": 0,
    "dataUncompletedCount": 100
  }
}